Validate ctas • ctasval
…
plan(sequential)

ctas
#> $result
#> # A tibble: 80 × 9
#>    anomaly_degree feats    parameter_id       TN    FN    FP    TP     tpr   fpr
#>             <dbl> <chr>    <chr>           <int> <int> <int> <int>   <dbl> <dbl>
#>  1              0 average  Alanine Aminot…  1600   299     0     1 0.00333     0
#>  2              0 average  Alkaline Phosp…  1600   300     0     0 0           0
#>  3              0 sd       Alanine Aminot…  1600   299     0     1 0.00333     0
#>  4              0 sd       Alkaline Phosp…  1600   300     0     0 0           0
#>  5              0 autocorr Alanine Aminot…  1600   299     0     1 0.00333     0
#>  6              0 autocorr Alkaline Phosp…  1600   300     0     0 0           0
#>  7              0 lof      Alanine Aminot…  1600   299     0     1 0.00333     0
#>  8              0 lof      Alkaline Phosp…  1600   300     0     0 0           0
#>  9              0 range    Alanine Aminot…  1600   300     0     0 0           0
#> 10              0 range    Alkaline Phosp…  1600   299     0     1 0.00333     0
#> # ℹ 70 more rows
#> 
#> $anomaly
#> # A tibble: 2,672,132 × 39
#>     iter anomaly_degree fun_anomaly feats   STUDYID      DOMAIN subject_id LBSEQ
#>    <int>          <dbl> <list>      <chr>   <chr>        <chr>  <chr>      <dbl>
#>  1     1              0 <fn>        average CDISCPILOT01 LB     sample_si…     2
#>  2     1              0 <fn>        average CDISCPILOT01 LB     sample_si…    39
#>  3     1              0 <fn>        average CDISCPILOT01 LB     sample_si…    74
#>  4     1              0 <fn>        average CDISCPILOT01 LB     sample_si…   104
#>  5     1              0 <fn>        average CDISCPILOT01 LB     sample_si…   134
#>  6     1              0 <fn>        average CDISCPILOT01 LB     sample_si…   164
#>  7     1              0 <fn>        average CDISCPILOT01 LB     sample_si…   199
#>  8     1              0 <fn>        average CDISCPILOT01 LB     sample_si…   231
#>  9     1              0 <fn>        average CDISCPILOT01 LB     sample_si…   262
#> 10     1              0 <fn>        average CDISCPILOT01 LB     sample_si…   299
#> # ℹ 2,672,122 more rows
#> # ℹ 31 more variables: LBTESTCD <chr>, LBTEST <chr>, LBCAT <chr>,
#> #   LBORRES <chr>, LBORRESU <chr>, LBORNRLO <chr>, LBORNRHI <chr>,
#> #   LBSTRESC <chr>, LBSTRESN <dbl>, LBSTRESU <chr>, LBSTNRLO <dbl>,
#> #   LBSTNRHI <dbl>, LBNRIND <chr>, LBBLFL <chr>, VISITNUM <dbl>, VISIT <chr>,
#> #   VISITDY <dbl>, LBDTC <chr>, LBDY <dbl>, timepoint_rank <dbl>,
#> #   timepoint_1_name <chr>, result <dbl>, parameter_id <chr>, …
…
