CTAS Validation — ctasval • ctasval
…
#>  1            0   average Alkaline Phosphat…    17     3     0     0 0         0
#>  2            0   sd      Alkaline Phosphat…    17     3     0     0 0         0
#>  3            0.5 average Alkaline Phosphat…    17     3     0     0 0         0
#>  4            0.5 sd      Alkaline Phosphat…    17     3     0     0 0         0
#>  5            1   average Alkaline Phosphat…    17     3     0     0 0         0
#>  6            1   sd      Alkaline Phosphat…    17     3     0     0 0         0
#>  7            5   average Alkaline Phosphat…    17     3     0     0 0         0
#>  8            5   sd      Alkaline Phosphat…    17     3     0     0 0         0
#>  9           10   average Alkaline Phosphat…    17     2     0     1 0.333     0
#> 10           10   sd      Alkaline Phosphat…    17     3     0     0 0         0
#> 11           50   average Alkaline Phosphat…    17     3     0     0 0         0
#> 12           50   sd      Alkaline Phosphat…    17     2     0     1 0.333     0
#> 
#> $anomaly
#> # A tibble: 3,358 × 39
#>     iter anomaly_degree fun_anomaly feats   STUDYID      DOMAIN subject_id LBSEQ
#>    <int>          <dbl> <list>      <chr>   <chr>        <chr>  <chr>      <dbl>
#>  1     1              0 <fn>        average CDISCPILOT01 LB     sample_si…     2
#>  2     1              0 <fn>        average CDISCPILOT01 LB     sample_si…    39
#>  3     1              0 <fn>        average CDISCPILOT01 LB     sample_si…    74
#>  4     1              0 <fn>        average CDISCPILOT01 LB     sample_si…   104
#>  5     1              0 <fn>        average CDISCPILOT01 LB     sample_si…   134
#>  6     1              0 <fn>        average CDISCPILOT01 LB     sample_si…   164
#>  7     1              0 <fn>        average CDISCPILOT01 LB     sample_si…   199
#>  8     1              0 <fn>        average CDISCPILOT01 LB     sample_si…   229
#>  9     1              0 <fn>        average CDISCPILOT01 LB     sample_si…   259
#> 10     1              0 <fn>        average CDISCPILOT01 LB     sample_si…     2
#> # ℹ 3,348 more rows
#> # ℹ 31 more variables: LBTESTCD <chr>, LBTEST <chr>, LBCAT <chr>,
#> #   LBORRES <chr>, LBORRESU <chr>, LBORNRLO <chr>, LBORNRHI <chr>,
#> #   LBSTRESC <chr>, LBSTRESN <dbl>, LBSTRESU <chr>, LBSTNRLO <dbl>,
#> #   LBSTNRHI <dbl>, LBNRIND <chr>, LBBLFL <chr>, VISITNUM <dbl>, VISIT <chr>,
#> #   VISITDY <dbl>, LBDTC <chr>, LBDY <dbl>, timepoint_rank <dbl>,
#> #   timepoint_1_name <chr>, result <dbl>, parameter_id <chr>, …
…
